Capítulo 5 Manipulando os dados no R Studio | bookdownproj.knit
…
str(iris)

## 'data.frame':    150 obs. of  5 variables:
##  $ Sepal.Length: num  5.1 4.9 4.7 4.6 5 5.4 4.6 5 4.4 4.9 ...
##  $ Sepal.Width : num  3.5 3 3.2 3.1 3.6 3.9 3.4 3.4 2.9 3.1 ...
##  $ Petal.Length: num  1.4 1.4 1.3 1.5 1.4 1.7 1.4 1.5 1.4 1.5 ...
##  $ Petal.Width : num  0.2 0.2 0.2 0.2 0.2 0.4 0.3 0.2 0.2 0.1 ...
##  $ Species     : Factor w/ 3 levels "setosa","versicolor",..: 1 1 1 1 1 1 1 1 1 1 ...

Observa-se que é um conjunto de dados da classe data.frame, contendo 150 observações de 5 variáveis (colunas). Fazendo a coerção para um tibble, tem-se:

library(tidyr)
as_tibble(iris)

## # A tibble: 150 × 5
##    Sepal.Length Sepal.Width Petal.Length Petal.Width Species
##           <dbl>       <dbl>        <dbl>       <dbl> <fct>  
##  1          5.1         3.5          1.4         0.2 setosa 
##  2          4.9         3            1.4         0.2 setosa 
##  3          4.7         3.2          1.3         0.2 setosa 
##  4          4.6         3.1          1.5         0.2 setosa 
##  5          5           3.6          1.4         0.2 setosa 
##  6          5.4         3.9          1.7         0.4 setosa 
##  7          4.6         3.4          1.4         0.3 setosa 
##  8          5           3.4          1.5         0.2 setosa 
##  9          4.4         2.9          1.4         0.2 setosa 
## 10          4.9         3.1          1.5         0.1 setosa 
## # ℹ 140 more rows
…
O pacote dplyr é adequado para trabalhar com um único conjunto de dados, bem como para obter resultados complexos em grandes conjuntos de dados. As funções dplyr são processadas mais rápido do que as funções R base.

Para trabalhar na manipulação dos dados serão usados alguns pacotes, já mencionados anteriormente, readxl(66) e dplyr, e o conjunto de dados dadosMater.xlsx. Para obter estes dados, clique aqui e faça o download para o seu diretório de trabalho, como orientado anteriormente.

library(readxl)
library(dplyr)

mater <- read_excel("Arquivos/dadosMater.xlsx")

A função read_excel() carrega o arquivo e o atribui a um objeto , arbitrariamente, denominado de mater11.

as_tibble(mater)

## # A tibble: 1,368 × 30
##       id idadeMae altura  peso ganhoPeso anosEst   cor eCivil renda  fumo
##    <dbl>    <dbl>  <dbl> <dbl>     <dbl>   <dbl> <dbl>  <dbl> <dbl> <dbl>
##  1     1       42   1.65  69.9       3.9       3     2      1  1.45     2
##  2     2       29   1.66  78        16.5      11     1      2  2.41     2
##  3     3       19   1.72  81         5         9     2      1  1.93     2
##  4     4       31   1.55  74        43         5     2      2  1.45     2
##  5     5       34   1.6   60        15         7     2      2  0.48     2
##  6     6       29   1.5   60        11.4       8     2      2  0.96     1
##  7     7       30   1.54  75.5      10.5       4     1      2  1.2      1
##  8     8       34   1.63  61         9         6     1      2  2.41     2
##  9     9       17   1.68  57        15        10     1      2  2.17     2
## 10    10       32   1.5   70        11.4       1     2      2  0.72     2
## # ℹ 1,358 more rows
## # ℹ 20 more variables: quantFumo <dbl>, prenatal <dbl>, para <dbl>,
## #   droga <dbl>, ig <dbl>, tipoParto <dbl>, pesoPla <dbl>, sexo <dbl>,
## #   pesoRN <dbl>, compRN <dbl>, pcRN <dbl>, apgar1 <dbl>, apgar5 <dbl>,
## #   utiNeo <dbl>, obito <dbl>, hiv <dbl>, sifilis <dbl>, rubeola <dbl>,
## #   toxo <dbl>, infCong <dbl>
…
